<svg width="36" height="41" viewBox="0 0 36 41" xmlns="http://www.w3.org/2000/svg">
  <path d="M23.68 36H36V0H0v36h14.052l4.814 4.814L23.68 36z" fill="#201547"/>
  <path d="M30 14.556h-6.222a2.62 2.62 0 0 0-2.667 2.533V31h-4V11H6V7h11.111v4H30v3.556z" fill="#fff"/>
</svg>
