<svg width="13" height="13" viewBox="0 0 13 13" xmlns="http://www.w3.org/2000/svg">
  <path d="M11 11H2V2h3V0H2a1.926 1.926 0 0 0-2 2v9a1.926 1.926 0 0 0 2 2h9a1.926 1.926 0 0 0 2-2V8h-2v3zM7 0v2h2.563L3.75 7.813l1.438 1.438L11 3.438V6h2V0H7z" fill="#c8d0d0"/>
</svg>
